{
    "type": "service_account",
    "project_id": "note-app-rizal",
    "private_key_id": "8b5ab917c3e4cffff165507d02104aedb2680f40",
    "private_key": "-----BEGIN PRIVATE KEY-----\nMIIEvgIBADANBgkqhkiG9w0BAQEFAASCBKgwggSkAgEAAoIBAQDcCj7NNR+38hsZ\nQRxffpkiWc7/+1q+veG3mwqMWJVjTDUqhrEhkMNUqACT+AZf7VCtSYr9QlFzZLbb\nWQRVmSD1IEEmcCUZ+e4qXHnjNzBcaZuM3DJHTze0TEhR4EiyzQCAevf6e33XGA9X\nJBkAhccEmjstmXA+zfdhDP45R6gyX5IOWtIpSJUe2CsfE8jydhAAZYjHEeajKepc\nMZHD5L5Le/BbkFsRva/n+0UF4XsJlSuolVNazVmdH9dBWGojvYtmIo1kls92jlmz\nJ6SNTmuTosoYtidmMZnTqBtUWpXg5hcxs908xsujC2Jb+Fx2Rv7vh0PkxiPCdlP5\nEPA4iPNjAgMBAAECggEAGBJQ238nyKZGO6WJVpMRapYblJppS3uXUVA3P7JDKXlB\nSbUxdIQTMlQsuANGo0DhdguZFmqmYXLPpEBhPoIBfn94UR2smWJjoSO7u9UiR8HP\n4AGIyI9Mfz9nG/nmyhSuLOAG99KBqkG6D+TljU6VPpYmyi7CfkRm/yl+OEL0Dgp9\nj0fbKkAsggx1ZEHjiqYRtCdqSxxwjFHSXpHs5zBttCevHivwj7a6IWdkJdzKYnEM\nIcBFxi6Is9fK1czIzQaGWwPRbqVHPHvLGO9rAPmugIGmPXINNTkPmY7oD4lUgpFS\nKOkp8Ds2Z+BT2wbK0ZkpjPwQP8EZBxr9V1wFQYOcoQKBgQDwutt1vPVkTIaKEGWC\n1SZyB95KQ72LovSdtVrRosH1JOFtn6uayC8KEtRG6aXLQDDn2z7WPZvqMjz5+j5L\nPQdhFcsLPWlDZB1UJ+hDRc+GeeJnqxeP3rSWo4dwAl0Wj+XXeFs+tXnWLmydWTTc\n/wNNge+Lje2Tt4FZeHe4fwlq4QKBgQDp/2k09pr4U0+YkbuL0BdQDPLG8qMed/AT\nNAx9fxYmPEgW8LOuf/bPZAO2YlPsOuNg5HqxzRLo98kT41U60Bj4ZPA/BojM1biT\nQZDmnMHGS/e9NZpa7Mv8AbViRCPPH/Ii+MSMaTrndI7s4fYwc1ru0hpvM0mVH68j\nTYHKNefKwwKBgFLcHnoSRmz1okGXjzlPYOJTLwJk+rM7rfMy30XVPenBfg6brRej\n2/0dqg+WkMi7GZpU7vYTUr1z+WUZ66M+KHIUbEU8KCVYKngzHFE7kEj7XyDL1Vpi\nD8riEtZNGfmQIk7eUJnvITbF2AD5GacP5/UfynJAsgvsWAuR2bOZloZBAoGBAIwt\nMX1E7fktD1W6l7td4VlXKGj+GbG679rRJ1pWs5IcMqNrdnhmuBftNjwgE15EuMnm\nlYnF7Doblh2P5hLhbtP+w909sN3kejnc4U0FQx/jinmSjvFBQcGp1FsVrs35uTgy\nBqyGrX7SWHyXsL+9mw/OVX+gHchzvptLZyEXwc+5AoGBAJ0EOqXsEweYrXMxv708\nqNYuNGy4HOCEZWhjrTaoPSSIe7vDXXBymkMHCKD004wiJN/3DvqIJan48zmu73FY\nrsW6p0A3fs/t8FhzEiZ2WZWSpqrU3PoH4uv+KQLR4hnGs4lEmCxkKBh+g5Xx57Ys\nZiEedM8VfpXFdrwXiionOCer\n-----END PRIVATE KEY-----\n",
    "client_email": "firebase-adminsdk-enadv@note-app-rizal.iam.gserviceaccount.com",
    "client_id": "102940716080071201604",
    "auth_uri": "https://accounts.google.com/o/oauth2/auth",
    "token_uri": "https://oauth2.googleapis.com/token",
    "auth_provider_x509_cert_url": "https://www.googleapis.com/oauth2/v1/certs",
    "client_x509_cert_url": "https://www.googleapis.com/robot/v1/metadata/x509/firebase-adminsdk-enadv%40note-app-rizal.iam.gserviceaccount.com"
}
  